# Blender3D v249 OBJ File: 
# www.blender3d.org
mtllib franklin2.mtl
v 0.000000 -1.305834 0.268356
v 0.000000 -1.305834 0.479644
v 0.000000 -1.517122 0.479644
v 0.000000 -1.517122 0.268356
v 0.105644 -1.517122 0.374000
v 0.105644 -1.305834 0.374000
v -0.105644 -1.305834 0.374000
v -0.105644 -1.517122 0.374000
v 0.105644 -1.411478 0.268356
v 0.105644 -1.411478 0.479644
v -0.105644 -1.411478 0.479644
v -0.105644 -1.411478 0.268356
v 0.000000 1.270162 -0.265644
v 0.000000 1.270162 -0.054356
v 0.000000 1.058882 -0.054356
v 0.000000 1.058882 -0.265644
v 0.105644 1.058882 -0.160000
v 0.105644 1.270162 -0.160000
v -0.105644 1.270162 -0.160000
v -0.105644 1.058882 -0.160000
v 0.105644 1.164522 -0.265644
v 0.105644 1.164522 -0.054356
v -0.105644 1.164522 -0.054356
v -0.105644 1.164522 -0.265644
v 1.488000 -1.911834 -0.161644
v 1.488000 -1.911834 0.049644
v 1.488000 -2.123122 0.049644
v 1.488000 -2.123122 -0.161644
v 1.593640 -2.123122 -0.056000
v 1.593640 -1.911834 -0.056000
v 1.382360 -1.911834 -0.056000
v 1.382360 -2.123122 -0.056000
v 1.593640 -2.017478 -0.161644
v 1.593640 -2.017478 0.049644
v 1.382360 -2.017478 0.049644
v 1.382360 -2.017478 -0.161644
v -1.488000 -1.911834 -0.161644
v -1.488000 -1.911834 0.049644
v -1.488000 -2.123122 0.049644
v -1.488000 -2.123122 -0.161644
v -1.382360 -2.123122 -0.056000
v -1.382360 -1.911834 -0.056000
v -1.593640 -1.911834 -0.056000
v -1.593640 -2.123122 -0.056000
v -1.382360 -2.017478 -0.161644
v -1.382360 -2.017478 0.049644
v -1.593640 -2.017478 0.049644
v -1.593640 -2.017478 -0.161644
v -0.341029 -0.476468 0.216758
v -0.362960 -0.440440 0.153798
v -0.292602 -0.440440 0.216758
v 0.341029 -0.476468 0.216758
v 0.292602 -0.440440 0.216758
v 0.362960 -0.440440 0.146803
v -0.533272 -2.248440 0.153798
v -0.506315 -2.212413 0.216758
v -0.479518 -2.248440 0.216758
v 0.479518 -2.248440 0.216758
v 0.506315 -2.212413 0.216758
v 0.533272 -2.248440 0.146803
v -0.237475 -0.087878 0.187245
v -0.307834 -0.087878 0.117289
v -0.296465 0.000702 0.175369
v -0.307834 -0.087878 -0.094284
v -0.237475 -0.087878 -0.142369
v -0.296297 0.002012 -0.142369
v 0.237475 -0.087878 -0.142369
v 0.307834 -0.087878 -0.072414
v 0.296297 0.002012 -0.142369
v 0.307834 -0.087878 0.139160
v 0.237475 -0.087878 0.187245
v 0.296465 0.000702 0.175369
v -0.514189 -2.415758 -0.156509
v -0.479518 -2.395376 -0.171882
v -0.533272 -2.395376 -0.101927
v -0.514189 -2.415758 0.201385
v -0.533272 -2.395376 0.153798
v -0.479518 -2.395376 0.216758
v 0.514189 -2.415758 0.201385
v 0.479518 -2.395376 0.216758
v 0.533272 -2.395376 0.146803
v 0.514189 -2.415758 -0.156509
v 0.533272 -2.395376 -0.108922
v 0.479518 -2.395376 -0.171882
v -0.457547 -2.476248 0.155753
v 0.457547 -2.476248 0.155753
v 0.457547 -2.476248 -0.110877
v -0.457547 -2.476248 -0.110877
v -0.178121 -0.929318 0.322710
v -0.275930 -0.583407 0.216758
v 0.275930 -0.583407 0.216758
v 0.178121 -0.929318 0.322710
v 0.130965 -1.032392 0.341283
v -0.130965 -1.032392 0.341283
v 0.426300 -2.105473 0.216758
v 0.275741 -1.912561 0.376925
v 0.212988 -1.830057 0.396205
v -0.426300 -2.105473 0.216758
v -0.275741 -1.912561 0.376925
v -0.212988 -1.830057 0.396205
v -0.362960 -0.440440 -0.101927
v -0.533272 -2.248440 -0.101927
v -0.292602 -0.440440 -0.171882
v 0.292602 -0.440440 -0.171882
v -0.479518 -2.248440 -0.171882
v 0.479518 -2.248440 -0.171882
v 0.533272 -2.248440 -0.108922
v 0.362960 -0.440440 -0.108922
v 0.029816 1.586672 -0.142369
v 0.081867 1.326322 -0.142369
v 0.081837 1.326682 -0.002389
v 0.029805 1.587032 -0.072389
v -0.081837 1.326682 -0.002389
v -0.029805 1.587032 -0.072389
v -0.029816 1.586672 -0.142369
v -0.081867 1.326322 -0.142369
v -0.058899 1.005972 0.017901
v -0.085561 0.909912 0.033723
v -0.077293 0.881312 0.005515
v -0.040602 0.933742 -0.008314
v 0.000000 1.071152 0.006815
v -0.039122 1.025952 0.038997
v -0.064166 0.914902 0.074877
v -0.024397 1.005972 0.067331
v -0.035440 0.909912 0.105528
v 0.000000 1.025952 0.062213
v 0.000000 0.914902 0.112955
v 0.024397 1.005972 0.067331
v 0.035440 0.909912 0.105528
v 0.039122 1.025952 0.038997
v 0.064166 0.914902 0.074877
v 0.058899 1.005972 0.017901
v 0.085561 0.909912 0.033723
v 0.040602 0.933742 -0.008314
v 0.077293 0.881312 0.005515
v -0.058899 0.268282 0.017900
v -0.085561 0.364342 0.033722
v -0.064166 0.359352 0.074876
v -0.039122 0.248302 0.038996
v -0.040602 0.340512 -0.008314
v -0.077293 0.392942 0.005514
v 0.000000 0.203102 0.006815
v -0.024397 0.268282 0.067331
v -0.035440 0.364342 0.105528
v 0.000000 0.359352 0.112954
v 0.000000 0.248302 0.062212
v 0.024397 0.268282 0.067331
v 0.035440 0.364342 0.105528
v 0.064166 0.359352 0.074876
v 0.039122 0.248302 0.038996
v 0.058899 0.268282 0.017900
v 0.085561 0.364342 0.033722
v 0.077293 0.392942 0.005514
v 0.040602 0.340512 -0.008314
v -0.106646 0.781582 0.046235
v -0.081880 0.781582 0.100254
v -0.089134 0.745472 -0.001230
v -0.088904 0.637132 0.110317
v -0.115795 0.637132 0.051664
v -0.106995 0.637132 0.013489
v -0.044174 0.781582 0.135737
v 0.000000 0.781582 0.148844
v 0.000000 0.637132 0.163076
v -0.047964 0.637132 0.148844
v 0.044174 0.781582 0.135737
v 0.081880 0.781582 0.100254
v 0.088904 0.637132 0.110317
v 0.047964 0.637132 0.148844
v 0.106646 0.781582 0.046235
v 0.089134 0.745472 -0.001230
v 0.106995 0.637132 0.013489
v 0.115795 0.637132 0.051664
v -0.106646 0.492672 0.046235
v -0.081880 0.492672 0.100254
v -0.089134 0.528782 -0.001230
v -0.044174 0.492672 0.135737
v 0.000000 0.492672 0.148844
v 0.044174 0.492672 0.135737
v 0.081880 0.492672 0.100254
v 0.106646 0.492672 0.046235
v 0.089134 0.528782 -0.001230
v 0.000000 0.637132 -0.017052
v 1.425050 -1.719478 0.007363
v 0.000000 -0.567478 0.007363
v 0.000000 -0.567478 -0.158885
v 1.425050 -1.719478 -0.052725
v 1.425050 -2.249478 0.007363
v 0.000000 -2.249478 0.007363
v 0.000000 -2.249478 -0.158885
v 1.425050 -2.249478 -0.052725
v 1.456400 -1.719478 -0.052725
v 1.456400 -2.249478 -0.052725
v 1.456400 -2.249478 0.007363
v 1.456400 -1.719478 0.007363
v 1.456400 -2.249478 0.194123
v 1.425050 -2.249478 0.194123
v 1.425050 -1.873478 0.194123
v 1.456400 -1.873478 0.194123
v 1.425050 -1.845478 -0.236725
v 1.425050 -2.249478 -0.236725
v 1.456400 -2.249478 -0.236725
v 1.456400 -1.845478 -0.236725
v -1.425050 -1.719478 -0.052725
v 0.000000 -0.567478 -0.158885
v 0.000000 -0.567478 0.007363
v -1.425050 -1.719478 0.007363
v -1.425050 -2.249478 -0.052725
v 0.000000 -2.249478 -0.158885
v 0.000000 -2.249478 0.007363
v -1.425050 -2.249478 0.007363
v -1.456400 -1.719478 -0.052725
v -1.456400 -1.719478 0.007363
v -1.456400 -2.249478 0.007363
v -1.456400 -2.249478 -0.052725
v -1.456400 -2.249478 0.194123
v -1.456400 -1.873478 0.194123
v -1.425050 -1.873478 0.194123
v -1.425050 -2.249478 0.194123
v -1.425050 -1.845478 -0.236725
v -1.456400 -1.845478 -0.236725
v -1.456400 -2.249478 -0.236725
v -1.425050 -2.249478 -0.236725
vt 0.000003 0.000000
vt 0.000000 0.995920
vt 0.995923 0.000003
vt 0.995920 0.995923
vt 0.004080 0.001151
vt 0.004077 0.997071
vt 0.999997 0.997074
vt 1.000000 0.001154
vt 0.432181 0.140884
vt 0.439080 0.151918
vt 0.450937 0.005340
vt 0.442354 0.015121
vt 0.365528 0.020838
vt 0.463190 0.139787
vt 0.472783 0.021189
vt 0.441248 0.602396
vt 0.448365 0.617245
vt 0.824309 0.621961
vt 0.809212 0.217620
vt 0.817419 0.212487
vt 0.834091 0.006386
vt 0.802446 0.015337
vt 0.787625 0.198565
vt 0.831517 0.621692
vt 0.863063 0.621922
vt 0.864306 0.607515
vt 0.832760 0.607285
vt 0.357271 0.122907
vt 0.364353 0.243993
vt 0.346001 0.229867
vt 0.057804 0.254148
vt 0.535148 0.449631
vt 0.535712 0.518031
vt 0.824137 0.475094
vt 0.356526 0.346096
vt 0.336235 0.357261
vt 0.355592 0.361261
vt 0.431306 0.363738
vt 0.430350 0.378900
vt 0.365056 0.553988
vt 0.345717 0.538649
vt 0.057183 0.533981
vt 0.364492 0.599532
vt 0.345154 0.607050
vt 0.347473 0.006621
vt 0.058150 0.029690
vt 0.869250 0.222847
vt 0.866386 0.432770
vt 0.881467 0.236047
vt 0.848991 0.215042
vt 0.870586 0.001844
vt 0.865663 0.008940
vt 0.866518 0.211726
vt 0.882425 0.015068
vt 0.869115 0.542025
vt 0.864988 0.552468
vt 0.852302 0.443924
vt 0.848443 0.436126
vt 0.880157 0.608650
vt 0.880867 0.551255
vt 0.864099 0.538263
vt 0.833441 0.552238
vt 0.832553 0.538033
vt 0.545813 0.048224
vt 0.758988 0.044340
vt 0.440950 0.237934
vt 0.832664 0.227536
vt 0.816859 0.433706
vt 0.909796 0.611674
vt 0.909798 0.624531
vt 0.924887 0.624526
vt 0.924885 0.611674
vt 0.171857 0.148709
vt 0.151145 0.151379
vt 0.176166 0.153752
vt 0.156284 0.143591
vt 0.152222 0.160757
vt 0.123478 0.153491
vt 0.123478 0.165711
vt 0.144980 0.145566
vt 0.115691 0.143806
vt 0.051141 0.097791
vt 0.038964 0.104279
vt 0.080524 0.098793
vt 0.023982 0.098483
vt 0.019190 0.102195
vt 0.008498 0.109392
vt 0.036850 0.121659
vt 0.101392 0.120691
vt 0.909796 0.569492
vt 0.914257 0.583148
vt 0.922268 0.578538
vt 0.924162 0.569492
vt 0.017153 0.118942
vt 0.151145 0.168084
vt 0.922142 0.584945
vt 0.171857 0.160209
vt 0.012004 0.214344
vt 0.032575 0.217728
vt 0.007956 0.208881
vt 0.031871 0.210044
vt 0.031199 0.223862
vt 0.059724 0.229073
vt 0.060119 0.220953
vt 0.060582 0.211440
vt 0.033318 0.202464
vt 0.928319 0.576429
vt 0.012515 0.203836
vt 0.012807 0.184702
vt 0.033518 0.192577
vt 0.008498 0.178245
vt 0.032441 0.185250
vt 0.061044 0.201927
vt 0.061439 0.193807
vt 0.033518 0.175872
vt 0.020915 0.123695
vt 0.032543 0.196226
vt 0.012807 0.173202
vt 0.028379 0.168084
vt 0.039684 0.170059
vt 0.061186 0.190204
vt 0.061186 0.177984
vt 0.068973 0.168299
vt 0.047117 0.130877
vt 0.075883 0.136948
vt 0.012807 0.148709
vt 0.033518 0.151379
vt 0.028379 0.143591
vt 0.008498 0.153752
vt 0.039684 0.145566
vt 0.032441 0.160757
vt 0.061186 0.165711
vt 0.061186 0.153491
vt 0.068973 0.143806
vt 0.033518 0.168084
vt 0.150838 0.229680
vt 0.150063 0.223441
vt 0.121942 0.232098
vt 0.185630 0.122441
vt 0.181868 0.117687
vt 0.165933 0.119723
vt 0.012807 0.160209
vt 0.923857 0.598601
vt 0.928319 0.584945
vt 0.915847 0.593991
vt 0.163819 0.137103
vt 0.155666 0.110505
vt 0.126900 0.104434
vt 0.194285 0.131990
vt 0.915973 0.600397
vt 0.170866 0.222069
vt 0.175425 0.217024
vt 0.122337 0.223979
vt 0.151510 0.215862
vt 0.122799 0.214465
vt 0.150806 0.208177
vt 0.171377 0.211561
vt 0.913952 0.584945
vt 0.909796 0.591881
vt 0.151145 0.192577
vt 0.171857 0.184702
vt 0.176166 0.178245
vt 0.123262 0.204952
vt 0.152182 0.202043
vt 0.123657 0.196832
vt 0.152222 0.185250
vt 0.151145 0.175872
vt 0.123478 0.190204
vt 0.171857 0.173202
vt 0.183593 0.139187
vt 0.178802 0.142900
vt 0.156284 0.168084
vt 0.123478 0.177984
vt 0.144980 0.170059
vt 0.115691 0.168299
vt 0.151642 0.143591
vt 0.122259 0.142589
vt 0.092332 0.154407
vt 0.090760 0.232098
vt 0.091188 0.223282
vt 0.092332 0.146476
vt 0.092332 0.167676
vt 0.104177 0.097791
vt 0.091691 0.212953
vt 0.092193 0.202624
vt 0.092332 0.192169
vt 0.092332 0.178900
vt 0.092621 0.193807
vt 0.098606 0.143591
vt 0.092332 0.170969
vt 0.524059 0.742294
vt 0.409787 0.742294
vt 0.409787 0.782561
vt 0.275625 0.886888
vt 0.275625 0.922733
vt 0.638276 0.886889
vt 0.638276 0.922734
vt 0.948848 0.034984
vt 0.948306 0.029593
vt 0.907875 0.022660
vt 0.886509 0.511711
vt 0.847174 0.506556
vt 0.846296 0.513258
vt 0.049964 0.433317
vt 0.062919 0.433317
vt 0.062920 0.319045
vt 0.907333 0.017269
vt 0.049964 0.319045
vt 0.885631 0.518413
vt 0.490855 0.782561
vt 0.961742 0.033726
vt 1.000000 0.426658
vt 0.071719 0.621961
vt 0.467470 0.621962
vt 0.239864 0.904294
vt 0.961200 0.028335
vt 0.409787 0.702623
vt 0.524059 0.702622
vt 0.964325 0.430137
vt 0.471114 0.624916
vt 0.866203 0.624916
vt 0.938042 0.713783
vt 0.999998 0.010049
vt 0.000000 0.710924
vt 0.903739 0.204091
vt 0.899355 0.513394
vt 0.939280 0.208748
vt 0.699101 0.906941
vt 0.898477 0.520096
vt 0.939280 0.518626
vt 0.938402 0.525329
vt 0.103186 0.319046
vt 0.999456 0.004658
vt 0.010292 0.406151
vt 0.409787 0.796080
vt 0.409787 0.789321
vt 0.490855 0.789321
vt 0.103186 0.400114
vt 0.490855 0.796080
vt 0.436954 0.742294
vt 0.496892 0.782561
vt 0.010293 0.319045
vt 0.496892 0.789321
vt 0.888404 0.547300
vt 0.895808 0.558002
vt 0.909796 0.547300
vt 0.441929 0.547349
vt 0.826815 0.000000
vt 0.337166 0.134044
vt 0.055305 0.064865
vt 0.823685 0.444962
vt 0.055105 0.289347
vt 0.366567 0.005717
vt 0.056732 0.564112
vt 0.868161 0.619065
vt 0.909796 0.606036
vt 0.920271 0.611674
vt 0.927645 0.606035
vt 0.864248 0.229956
vt 0.329050 0.811002
vt 0.329050 0.868489
vt 0.526351 0.868489
vt 0.526351 0.811002
vt 0.539621 0.124782
vt 0.749401 0.162856
vt 0.440714 0.532943
vt 0.000000 0.273868
vt 0.001036 0.036345
vt 0.000000 0.049156
vt 0.000983 0.261049
vt 0.443310 0.000000
vt 0.909796 0.557731
vt 0.916979 0.563612
vt 0.928818 0.557731
vt 0.880869 0.458988
vt 0.880604 0.443924
vt 0.432501 0.528227
vt 0.439636 0.514884
vt 0.048124 0.519773
vt 0.922372 0.557731
vt 0.930153 0.547300
vt 0.430717 0.156004
vt 0.355781 0.138027
vt 0.516315 0.505805
vt 0.438955 0.459836
vt 0.047442 0.464726
vt 0.015896 0.464955
vt 0.016578 0.520003
vt 0.017804 0.532904
vt 0.056557 0.532943
vt 0.049350 0.532674
vt 0.515751 0.460262
vt 0.365668 0.228895
vt 0.442336 0.222848
vt 0.909796 0.563612
vt 0.916979 0.569492
vt 0.928818 0.563612
vt 0.016767 0.449245
vt 0.048313 0.449015
vt 0.012705 0.530047
vt 0.011751 0.453006
vt 0.000000 0.462237
vt 0.000711 0.519632
vt 0.909796 0.600397
vt 0.920271 0.606035
vt 0.927645 0.600397
vt 0.852709 0.222847
vt 0.562659 0.116440
vt 0.567212 0.060150
vt 0.732838 0.147936
vt 0.740243 0.056391
vt 0.440153 0.443924
vt 0.000265 0.532943
vt 0.000000 0.548006
vn 1.000000 0.000000 0.000000
vn 0.000000 0.000000 1.000000
vn 0.000000 -1.000000 0.000000
vn 0.000000 1.000000 0.000000
vn 0.000000 0.000000 -1.000000
vn -1.000000 0.000000 0.000000
vn -0.290078 0.185247 0.938871
vn -0.403180 0.144444 0.903623
vn 0.238136 0.127781 0.962767
vn 0.339396 0.263924 0.902829
vn 0.211951 0.084078 0.973632
vn -0.130467 0.074038 0.988678
vn 0.200903 0.116214 0.972655
vn 0.924070 0.198401 0.326670
vn 0.442610 -0.056948 0.894864
vn -0.259835 -0.065737 0.963408
vn -0.400739 -0.138707 0.905606
vn 0.366161 -0.081973 0.926908
vn 0.171087 -0.124912 0.977294
vn -0.228217 -0.178411 0.957091
vn 0.435499 0.019593 0.899960
vn 0.951872 -0.118564 0.282571
vn 0.947630 -0.069796 0.311624
vn -0.374950 0.009064 0.926969
vn -0.210578 0.010987 -0.977508
vn -0.928861 0.047151 -0.367321
vn -0.589557 0.110324 -0.800134
vn -0.705100 0.053987 0.707022
vn -0.686911 0.241981 0.685232
vn 0.370861 -0.046724 -0.927488
vn 0.528245 -0.084201 -0.844874
vn 0.963164 0.101993 -0.248695
vn 0.375561 0.088443 -0.922544
vn 0.904752 0.133976 -0.404279
vn 0.701376 0.121891 -0.702261
vn 0.884915 0.037568 0.464187
vn 0.816462 0.052461 0.574969
vn 0.685781 0.260109 0.679678
vn -0.288888 -0.530320 -0.797021
vn 0.171087 -0.911374 -0.374248
vn -0.428907 -0.872341 -0.234535
vn -0.280892 -0.236854 0.930021
vn 0.591021 -0.549089 0.590899
vn -0.288644 -0.903867 0.315683
vn 0.349620 -0.855281 0.382366
vn 0.667043 -0.628925 -0.399304
vn 0.936247 -0.017273 -0.350841
vn 0.362621 -0.099094 -0.926633
vn 0.931425 0.044130 -0.361187
vn 0.418317 0.021577 -0.908017
vn 0.197363 0.166570 0.966063
vn 0.269784 -0.190252 0.943907
vn -0.378613 0.087527 -0.921384
vn -0.426283 0.020356 -0.904324
vn 0.531541 0.648244 -0.545152
vn -0.531480 0.648244 -0.545244
vn -0.490158 0.727622 0.479873
vn 0.490249 0.727592 0.479781
vn -0.640217 0.467940 -0.609180
vn -0.969451 0.240059 -0.049837
vn -0.721885 0.590716 0.360393
vn -0.339549 0.192969 -0.920560
vn -0.781549 0.281411 0.556719
vn -0.993561 0.112827 0.009369
vn -0.804407 0.144597 0.576159
vn -0.740287 0.190222 -0.644795
vn -0.715049 0.065249 -0.696005
vn 0.000000 0.922086 -0.386944
vn 0.339549 0.192969 -0.920560
vn 0.000000 0.576525 0.817072
vn 0.721885 0.590716 0.360393
vn -0.469619 0.311899 0.825922
vn -0.433485 0.473617 0.766625
vn 0.000000 0.338816 0.940825
vn -0.492141 0.161870 0.855312
vn 0.000000 0.176794 0.984222
vn 0.469619 0.311899 0.825922
vn 0.433485 0.473617 0.766625
vn 0.781549 0.281411 0.556719
vn 0.492141 0.161870 0.855312
vn 0.804407 0.144597 0.576159
vn 0.969451 0.240059 -0.049837
vn 0.640217 0.467940 -0.609180
vn 0.740287 0.190222 -0.644795
vn 0.993561 0.112827 0.009369
vn 0.715049 0.065249 -0.696005
vn -0.640217 -0.467940 -0.609180
vn -0.969451 -0.240059 -0.049837
vn -0.339518 -0.192938 -0.920560
vn -0.721915 -0.590716 0.360363
vn -0.740257 -0.190222 -0.644795
vn -0.781549 -0.281411 0.556719
vn -0.804407 -0.144597 0.576159
vn -0.993561 -0.112827 0.009369
vn -0.715018 -0.065249 -0.696005
vn -0.469619 -0.311899 0.825922
vn -0.433485 -0.473617 0.766625
vn 0.000000 -0.922086 -0.386975
vn 0.000000 -0.576525 0.817072
vn 0.339518 -0.192938 -0.920560
vn -0.492141 -0.161870 0.855312
vn 0.000000 -0.338816 0.940825
vn 0.000000 -0.176794 0.984222
vn 0.469619 -0.311899 0.825922
vn 0.433485 -0.473617 0.766625
vn 0.721915 -0.590716 0.360363
vn 0.492141 -0.161870 0.855312
vn 0.781549 -0.281411 0.556719
vn 0.804407 -0.144597 0.576159
vn 0.969451 -0.240059 -0.049837
vn 0.640217 -0.467940 -0.609180
vn 0.993561 -0.112827 0.009369
vn 0.740257 -0.190222 -0.644795
vn 0.715018 -0.065249 -0.696005
vn -0.998016 0.000000 0.062777
vn -0.812281 0.000000 0.583239
vn -0.498459 0.000000 0.866878
vn -0.903653 0.000000 -0.428236
vn 0.498459 0.000000 0.866878
vn 0.812281 0.000000 0.583239
vn 0.998016 0.000000 0.062777
vn 0.903653 0.000000 -0.428236
vn -0.121647 0.835292 0.536119
vn -0.301492 -0.904508 0.301492
vn -0.577349 -0.577349 0.577349
vn -0.281289 0.589099 0.757500
vn -0.228645 0.598651 -0.767663
vn -0.548204 -0.592181 -0.590564
vn -0.097385 0.853328 -0.512162
vn 0.723075 0.659841 -0.204260
vn -0.492050 0.405988 -0.770074
vn -0.281014 -0.910703 -0.302713
vn -0.577349 -0.577349 -0.577349
vn 0.577349 -0.577349 -0.577349
vn 0.728202 0.645009 0.231635
vn 0.707083 -0.707083 0.000000
vn 0.492050 0.405988 -0.770074
vn -0.483779 0.373241 0.791559
vn 0.097385 0.853328 -0.512162
vn 0.121647 0.835292 0.536119
vn 0.281289 0.589099 0.757500
vn 0.228645 0.598651 -0.767663
vn 0.548204 -0.592181 -0.590564
vn -0.723075 0.659841 -0.204260
vn -0.728202 0.645009 0.231635
vn 0.281014 -0.910703 -0.302713
vn 0.577349 -0.577349 0.577349
vn 0.301492 -0.904508 0.301492
vn 0.483779 0.373241 0.791559
vn -0.707083 -0.707083 0.000000
vn -0.435499 0.019593 -0.899960
vn -0.265877 0.171148 0.948668
vn -0.335673 -0.188116 0.922971
vn -0.893796 0.260018 0.365368
vn -0.951811 -0.015259 0.306253
vn -0.939879 0.087924 0.329966
vn -0.914090 0.124699 -0.385784
vn -0.945830 0.044465 -0.321574
vn -0.936308 -0.272958 -0.220801
vn -0.936247 -0.017273 0.350841
vn -0.887265 0.011811 -0.461074
vn -0.738853 -0.483291 0.469527
vn -0.065035 0.111667 0.991607
vn 0.107212 0.113681 0.987701
vn -0.101077 -0.023957 0.994568
vn 0.143010 -0.018555 0.989532
usemtl tex0_0
s 1
f 1/1/1 2/2/1 4/3/1
f 2/2/1 3/4/1 4/3/1
f 5/1/2 6/2/2 8/3/2
f 6/2/2 7/4/2 8/3/2
f 9/1/3 10/2/3 12/3/3
f 10/2/3 11/4/3 12/3/3
f 21/1/4 24/3/4 23/4/4
f 22/2/4 21/1/4 23/4/4
f 29/5/5 32/6/5 31/7/5
f 30/8/5 29/5/5 31/7/5
f 37/1/6 40/3/6 39/4/6
f 38/2/6 37/1/6 39/4/6
f 41/1/5 44/3/5 43/4/5
f 42/2/5 41/1/5 43/4/5
f 45/5/3 46/8/3 48/6/3
f 46/8/3 47/7/3 48/6/3
f 13/5/6 16/6/6 15/7/6
f 14/8/6 13/5/6 15/7/6
f 17/1/5 20/3/5 19/4/5
f 18/2/5 17/1/5 19/4/5
f 25/1/1 26/2/1 28/3/1
f 26/2/1 27/4/1 28/3/1
f 33/1/3 34/2/3 36/3/3
f 34/2/3 35/4/3 36/3/3
usemtl tex1_0
f 51/9/7 49/10/8 52/11/9
f 51/9/7 53/12/10 71/13/11
f 52/11/9 90/14/12 91/15/13
f 54/16/14 52/17/9 59/18/15
f 56/19/16 57/20/17 58/21/18
f 56/19/16 95/22/19 98/23/20
f 58/24/18 80/25/21 81/26/22
f 60/27/23 54/16/14 59/18/15
f 60/27/23 58/24/18 81/26/22
f 61/28/24 51/9/7 71/13/11
f 65/29/25 66/30/26 116/31/27
f 66/32/26 63/33/28 113/34/29
f 67/35/30 65/29/25 69/36/31
f 67/35/30 68/37/32 104/38/33
f 68/37/32 108/39/34 104/38/33
f 68/40/32 69/41/31 110/42/35
f 70/43/36 68/40/32 72/44/37
f 71/13/11 72/45/37 111/46/38
f 73/47/39 87/48/40 88/49/41
f 78/50/42 79/51/43 80/52/21
f 78/50/42 85/53/44 86/54/45
f 81/26/22 82/55/46 83/56/47
f 82/57/46 73/47/39 84/58/48
f 82/55/46 86/59/45 87/60/40
f 83/56/47 84/61/48 107/62/49
f 84/61/48 106/63/50 107/62/49
f 91/15/13 92/64/51 96/65/52
f 95/22/19 91/15/13 96/65/52
f 103/66/53 104/38/33 105/67/54
f 104/38/33 106/68/50 105/67/54
f 109/69/55 115/70/56 114/71/57
f 112/72/58 109/69/55 114/71/57
f 117/73/59 118/74/60 122/75/61
f 118/74/60 117/73/59 120/76/62
f 118/74/60 123/77/63 122/75/61
f 118/74/60 155/78/64 156/79/65
f 118/74/60 119/80/66 157/81/67
f 119/80/66 118/74/60 120/76/62
f 119/82/66 120/83/62 157/84/67
f 120/83/62 117/85/59 122/86/61
f 120/83/62 121/87/68 134/88/69
f 120/83/62 182/89/5 157/84/67
f 121/87/68 120/83/62 122/86/61
f 121/90/68 122/91/61 126/92/70
f 121/90/68 126/92/70 130/93/71
f 121/87/68 130/94/71 134/88/69
f 122/75/61 123/77/63 125/95/72
f 122/91/61 124/96/73 126/92/70
f 123/77/63 118/74/60 156/79/65
f 124/97/73 122/75/61 125/95/72
f 124/98/73 125/99/72 126/100/70
f 125/99/72 127/101/74 126/100/70
f 125/99/72 123/102/63 156/103/65
f 125/99/72 161/104/75 162/105/76
f 126/100/70 127/101/74 129/106/77
f 126/92/70 128/107/78 130/93/71
f 127/101/74 125/99/72 162/105/76
f 128/108/78 126/100/70 129/106/77
f 128/109/78 129/110/77 130/111/71
f 129/110/77 131/112/79 130/111/71
f 129/106/77 127/101/74 162/105/76
f 129/106/77 165/113/80 166/114/81
f 130/111/71 131/112/79 133/115/82
f 130/94/71 132/116/83 134/88/69
f 131/117/79 129/106/77 166/114/81
f 132/118/83 130/111/71 133/115/82
f 132/118/83 133/115/82 134/119/69
f 133/115/82 135/120/84 134/119/69
f 133/115/82 131/112/79 166/121/81
f 133/115/82 169/122/85 170/123/86
f 134/88/69 135/124/84 170/125/86
f 135/120/84 133/115/82 170/123/86
f 136/126/87 137/127/88 140/128/89
f 137/127/88 136/126/87 139/129/90
f 137/127/88 141/130/91 140/128/89
f 137/127/88 138/131/92 174/132/93
f 137/127/88 173/133/94 175/134/95
f 138/131/92 137/127/88 139/129/90
f 138/131/92 139/129/90 144/135/96
f 138/136/92 144/137/96 174/138/93
f 139/139/90 136/140/87 140/141/89
f 139/129/90 143/142/97 144/135/96
f 139/143/90 142/144/98 146/145/99
f 140/141/89 182/89/5 154/146/100
f 140/141/89 141/147/91 175/148/95
f 141/130/91 137/127/88 175/134/95
f 142/149/98 139/139/90 140/141/89
f 142/149/98 140/141/89 154/146/100
f 143/150/97 139/143/90 146/145/99
f 144/137/96 143/151/97 146/152/99
f 144/137/96 176/153/101 174/138/93
f 144/137/96 145/154/102 177/155/103
f 145/154/102 144/137/96 146/152/99
f 145/154/102 146/152/99 148/156/104
f 145/154/102 148/156/104 177/155/103
f 146/152/99 147/157/105 148/156/104
f 146/145/99 142/144/98 150/158/106
f 147/159/105 146/145/99 150/158/106
f 148/160/104 147/161/105 150/162/106
f 148/156/104 178/163/107 177/155/103
f 148/156/104 149/164/108 179/165/109
f 149/166/108 148/160/104 150/162/106
f 149/166/108 150/162/106 152/167/110
f 149/166/108 152/167/110 179/168/109
f 150/162/106 151/169/111 152/167/110
f 150/170/106 142/149/98 154/146/100
f 151/171/111 150/170/106 154/146/100
f 152/167/110 151/169/111 154/172/100
f 152/167/110 180/173/112 179/168/109
f 152/167/110 153/174/113 181/175/114
f 153/174/113 152/167/110 154/172/100
f 153/176/113 154/146/100 181/177/114
f 154/146/100 182/89/5 181/177/114
f 155/78/64 118/74/60 157/81/67
f 155/78/64 157/81/67 159/178/115
f 156/79/65 155/78/64 159/178/115
f 156/103/65 158/179/116 164/180/117
f 157/81/67 160/181/118 159/178/115
f 157/84/67 182/89/5 175/148/95
f 158/182/116 156/79/65 159/178/115
f 158/182/116 159/178/115 174/132/93
f 159/178/115 173/133/94 174/132/93
f 159/178/115 160/181/118 175/134/95
f 160/183/118 157/84/67 175/148/95
f 161/104/75 125/99/72 156/103/65
f 161/104/75 156/103/65 164/180/117
f 162/105/76 161/104/75 164/180/117
f 162/105/76 163/184/2 168/185/119
f 163/184/2 162/105/76 164/180/117
f 163/184/2 164/180/117 177/155/103
f 164/180/117 158/179/116 174/138/93
f 164/180/117 176/153/101 177/155/103
f 165/113/80 129/106/77 162/105/76
f 165/113/80 162/105/76 168/185/119
f 166/114/81 165/113/80 168/185/119
f 166/121/81 167/186/120 172/187/121
f 167/188/120 166/114/81 168/185/119
f 167/188/120 168/185/119 179/165/109
f 168/185/119 163/184/2 177/155/103
f 168/185/119 178/163/107 179/165/109
f 169/122/85 133/115/82 166/121/81
f 169/122/85 166/121/81 172/187/121
f 170/123/86 169/122/85 172/187/121
f 170/125/86 171/189/122 181/177/114
f 171/190/122 170/123/86 172/187/121
f 171/190/122 172/187/121 181/175/114
f 172/187/121 167/186/120 179/168/109
f 172/187/121 180/173/112 181/175/114
f 173/133/94 137/127/88 174/132/93
f 173/133/94 159/178/115 175/134/95
f 176/153/101 164/180/117 174/138/93
f 176/153/101 144/137/96 177/155/103
f 178/163/107 168/185/119 177/155/103
f 178/163/107 148/156/104 179/165/109
f 180/173/112 172/187/121 179/168/109
f 180/173/112 152/167/110 181/175/114
f 182/89/5 120/83/62 134/88/69
f 182/89/5 134/88/69 170/125/86
f 182/89/5 140/141/89 175/148/95
f 182/89/5 170/125/86 181/177/114
f 183/191/123 187/192/124 196/193/125
f 184/194/126 185/195/127 188/196/125
f 185/195/127 189/197/128 188/196/125
f 186/198/129 191/199/130 199/200/131
f 190/201/132 200/202/133 201/203/134
f 191/204/130 194/205/135 193/206/136
f 191/199/130 202/207/137 199/200/131
f 192/208/136 191/204/130 193/206/136
f 192/209/136 190/201/132 201/203/134
f 197/210/138 183/191/123 196/193/125
f 203/198/139 206/211/140 205/212/141
f 203/213/139 204/214/142 208/215/143
f 203/198/139 211/199/144 212/216/145
f 203/198/139 219/200/137 220/207/131
f 203/217/139 207/218/146 222/191/134
f 204/219/142 203/198/139 205/212/141
f 204/195/142 205/194/141 208/197/143
f 205/194/141 209/196/147 208/197/143
f 205/220/141 206/221/140 210/222/148
f 206/211/140 203/198/139 212/216/145
f 206/211/140 212/216/145 217/223/149
f 207/224/146 203/213/139 208/215/143
f 207/201/146 208/225/143 210/226/148
f 207/201/146 210/226/148 214/209/150
f 207/201/146 214/209/150 222/202/134
f 208/225/143 209/227/147 210/226/148
f 209/228/147 205/220/141 210/222/148
f 210/226/148 213/229/150 214/209/150
f 210/226/148 218/230/147 215/231/125
f 210/192/148 206/191/140 217/210/149
f 211/199/144 203/198/139 220/207/131
f 212/205/145 211/204/144 214/208/150
f 212/205/145 213/206/150 215/232/125
f 212/216/145 216/233/138 217/223/149
f 213/206/150 212/205/145 214/208/150
f 213/229/150 210/226/148 215/231/125
f 214/208/150 211/204/144 220/234/131
f 214/209/150 221/203/133 222/202/134
f 215/235/125 218/236/147 217/237/149
f 216/238/138 212/205/145 215/232/125
f 216/239/138 215/235/125 217/237/149
f 218/193/147 210/192/148 217/210/149
f 219/240/137 203/217/139 222/191/134
f 220/236/131 219/193/137 222/241/134
f 221/242/133 214/208/150 220/234/131
f 221/243/133 220/236/131 222/241/134
f 52/11/9 49/10/8 90/14/12
f 53/244/10 52/245/9 54/246/14
f 54/16/14 108/247/34 68/40/32
f 58/21/18 57/20/17 78/50/42
f 59/18/15 58/24/18 60/27/23
f 59/248/15 52/11/9 91/15/13
f 60/27/23 81/26/22 107/62/49
f 63/249/28 71/13/11 113/250/29
f 65/29/25 67/35/30 104/38/33
f 66/32/26 113/34/29 116/251/27
f 68/37/32 67/35/30 69/36/31
f 69/36/31 65/29/25 110/252/35
f 70/43/36 54/16/14 68/40/32
f 71/13/11 70/253/36 72/45/37
f 72/44/37 68/40/32 111/254/38
f 73/47/39 82/57/46 87/48/40
f 79/51/43 78/50/42 86/54/45
f 80/52/21 58/21/18 78/50/42
f 81/26/22 79/255/43 82/55/46
f 81/26/22 83/56/47 107/62/49
f 83/256/47 82/257/46 84/258/48
f 84/58/48 74/259/151 105/67/54
f 85/260/44 88/261/41 87/262/40
f 86/263/45 85/260/44 87/262/40
f 89/264/152 92/64/51 91/15/13
f 90/14/12 89/264/152 91/15/13
f 95/22/19 59/248/15 91/15/13
f 95/22/19 96/65/52 98/23/20
f 96/65/52 99/265/153 98/23/20
f 103/66/53 65/29/25 104/38/33
f 104/266/33 108/247/34 107/62/49
f 106/68/50 84/58/48 105/67/54
f 106/63/50 104/266/33 107/62/49
f 109/267/55 110/252/35 116/31/27
f 111/46/38 112/268/58 114/269/57
f 113/250/29 111/46/38 114/269/57
f 115/270/56 109/267/55 116/31/27
f 183/221/123 184/220/126 188/228/125
f 183/211/123 194/216/135 191/199/130
f 185/214/127 186/213/129 190/224/132
f 186/198/129 183/211/123 191/199/130
f 187/222/124 183/221/123 188/228/125
f 187/226/124 190/201/132 193/229/136
f 189/215/128 185/214/127 190/224/132
f 190/201/132 192/209/136 193/229/136
f 191/204/130 192/208/136 201/242/134
f 193/206/136 194/205/135 198/238/149
f 195/232/147 193/206/136 198/238/149
f 202/234/137 191/204/130 201/242/134
f 51/9/7 52/11/9 53/12/10
f 53/12/10 54/271/14 71/13/11
f 54/271/14 70/253/36 71/13/11
f 54/16/14 60/27/23 107/62/49
f 56/19/16 58/21/18 59/248/15
f 63/249/28 61/28/24 71/13/11
f 68/40/32 110/42/35 111/254/38
f 71/13/11 111/46/38 113/250/29
f 73/47/39 74/259/151 84/58/48
f 80/272/21 79/273/43 81/274/22
f 82/55/46 79/255/43 86/59/45
f 108/247/34 54/16/14 107/62/49
f 110/252/35 65/29/25 116/31/27
f 113/34/29 114/275/57 116/251/27
f 114/275/57 115/276/56 116/251/27
f 183/211/123 186/198/129 185/219/127
f 184/212/126 183/211/123 185/219/127
f 187/226/124 188/227/125 190/201/132
f 188/227/125 189/225/128 190/201/132
f 190/218/132 186/217/129 199/240/131
f 196/236/125 195/235/147 198/239/149
f 197/237/138 196/236/125 198/239/149
f 200/191/133 190/218/132 199/240/131
f 49/277/8 50/278/154 55/279/155
f 49/10/8 56/19/16 98/23/20
f 50/246/154 49/280/8 51/281/7
f 50/282/154 51/9/7 62/283/156
f 50/278/154 62/284/156 101/285/157
f 51/9/7 61/28/24 62/283/156
f 55/279/155 102/286/158 75/287/159
f 55/279/155 77/288/160 78/289/42
f 55/279/155 50/278/154 101/285/157
f 56/290/16 49/277/8 55/279/155
f 56/290/16 55/279/155 57/291/17
f 56/19/16 59/248/15 95/22/19
f 57/291/17 55/279/155 78/289/42
f 62/283/156 61/28/24 63/249/28
f 62/284/156 63/33/28 66/32/26
f 62/284/156 64/292/161 101/285/157
f 64/292/161 62/284/156 66/32/26
f 64/293/161 65/29/25 101/294/157
f 65/29/25 64/293/161 66/30/26
f 65/29/25 103/66/53 101/294/157
f 74/295/151 73/296/39 75/297/159
f 74/298/151 75/287/159 105/299/54
f 75/287/159 76/300/162 77/288/160
f 75/287/159 73/301/39 88/302/41
f 75/287/159 102/286/158 105/299/54
f 76/300/162 75/287/159 85/303/44
f 77/288/160 55/279/155 75/287/159
f 77/304/160 76/305/162 78/306/42
f 78/50/42 76/307/162 85/53/44
f 85/303/44 75/287/159 88/302/41
f 89/264/152 94/308/163 93/309/164
f 89/264/152 90/14/12 98/23/20
f 89/264/152 99/265/153 100/310/165
f 90/14/12 49/10/8 98/23/20
f 92/64/51 89/264/152 93/309/164
f 92/64/51 93/309/164 96/65/52
f 93/309/164 97/311/166 96/65/52
f 93/309/164 94/308/163 100/310/165
f 94/308/163 89/264/152 100/310/165
f 96/65/52 97/311/166 100/310/165
f 97/311/166 93/309/164 100/310/165
f 99/265/153 89/264/152 98/23/20
f 99/265/153 96/65/52 100/310/165
f 101/285/157 103/312/53 105/299/54
f 102/286/158 55/279/155 101/285/157
f 102/286/158 101/285/157 105/299/54
f 109/313/55 112/314/58 111/254/38
f 110/42/35 109/313/55 111/254/38
f 183/211/123 197/223/138 198/233/149
f 187/226/124 193/229/136 196/230/125
f 193/229/136 195/231/147 196/230/125
f 194/216/135 183/211/123 198/233/149
f 199/193/131 202/236/137 201/243/134
f 200/241/133 199/193/131 201/243/134
