####
#
# OBJ File Generated by Meshlab
#
####
# Object cornell.obj
#
# Vertices: 60
# Faces: 30
#
####
mtllib ./cornell.mtl

vn 0.000000 1.000000 0.000000
vt 0.000000 1.000000
v 0.982832 -0.981402 -1.000000 
vn 1.000000 0.000000 0.000000
vt 0.000000 1.000000
v -0.994278 -0.981402 -1.000000 
vn 0.000000 0.000000 -1.000000
vt 0.000000 1.000000
v -0.994278 -0.981402 1.000000 
vn -0.999916 0.011661 -0.005722
vt 0.000000 1.000000
v 0.971388 -0.981402 1.000000 
vn -0.999983 0.005831 0.000000
vt 0.000000 1.000000
v 0.994278 0.981402 -1.000000 
vn 0.000000 0.000000 -1.000000
vt 0.000000 1.000000
v 0.994278 0.981402 1.000000 
vn 1.000000 0.000000 0.000000
vt 0.000000 1.000000
v -0.994278 0.981402 1.000000 
vn 0.000000 -1.000000 0.000000
vt 0.000000 1.000000
v -0.994278 0.981402 -1.000000 
vn -0.957827 0.000000 -0.287347
vt 0.000000 1.000000
v -0.529328 -0.391273 -0.767525 
vn -0.285120 0.000000 0.958492
vt 0.000000 1.000000
v -0.701001 -0.391273 -0.195279 
vn 0.953401 0.000000 0.301707
vt 0.000000 1.000000
v -0.135908 -0.391273 -0.027182 
vn 0.292825 0.000000 -0.956166
vt 0.000000 1.000000
v 0.042918 -0.391273 -0.592275 
vn 0.292825 0.000000 -0.956166
vt 0.000000 1.000000
v 0.042918 -0.981402 -0.592275 
vn 0.953401 0.000000 0.301707
vt 0.000000 1.000000
v -0.135908 -0.981402 -0.027182 
vn -0.957827 0.000000 -0.287347
vt 0.000000 1.000000
v -0.529328 -0.981402 -0.767525 
vn -0.285120 0.000000 0.958492
vt 0.000000 1.000000
v -0.701001 -0.981402 -0.195279 
vn -0.296209 0.000000 -0.955123
vt 0.000000 1.000000
v 0.518598 0.198855 -0.116595 
vn -0.956166 0.000000 0.292825
vt 0.000000 1.000000
v -0.046495 0.198855 0.058655 
vn 0.301709 0.000000 0.953400
vt 0.000000 1.000000
v 0.128755 0.198855 0.630901 
vn 0.955649 0.000000 -0.294508
vt 0.000000 1.000000
v 0.693848 0.198855 0.452074 
vn 0.955649 0.000000 -0.294508
vt 0.000000 1.000000
v 0.693848 -0.981402 0.452074 
vn 0.301709 0.000000 0.953400
vt 0.000000 1.000000
v 0.128755 -0.981402 0.630901 
vn -0.296209 0.000000 -0.955123
vt 0.000000 1.000000
v 0.518598 -0.981402 -0.116595 
vn -0.956166 0.000000 0.292825
vt 0.000000 1.000000
v -0.046495 -0.981402 0.058655 
vn -0.999958 0.008746 -0.002861
vt 0.000000 1.000000
v 0.982832 -0.981402 -1.000000 
vn 0.000000 1.000000 0.000000
vt 0.000000 1.000000
v -0.994278 -0.981402 -1.000000 
vn 1.000000 0.000000 0.000000
vt 0.000000 1.000000
v -0.994278 -0.981402 1.000000 
vn 0.000000 1.000000 0.000000
vt 0.000000 1.000000
v -0.994278 -0.981402 1.000000 
vn 0.000000 0.000000 -1.000000
vt 0.000000 1.000000
v 0.971388 -0.981402 1.000000 
vn 0.000000 1.000000 0.000000
vt 0.000000 1.000000
v 0.971388 -0.981402 1.000000 
vn 0.000000 -1.000000 0.000000
vt 0.000000 1.000000
v 0.994278 0.981402 -1.000000 
vn -0.999958 0.008746 -0.002861
vt 0.000000 1.000000
v 0.994278 0.981402 1.000000 
vn 0.000000 -1.000000 0.000000
vt 0.000000 1.000000
v 0.994278 0.981402 1.000000 
vn 0.000000 0.000000 -1.000000
vt 0.000000 1.000000
v -0.994278 0.981402 1.000000 
vn 0.000000 -1.000000 0.000000
vt 0.000000 1.000000
v -0.994278 0.981402 1.000000 
vn 1.000000 0.000000 0.000000
vt 0.000000 1.000000
v -0.994278 0.981402 -1.000000 
vn 0.292825 0.000000 -0.956166
vt 0.000000 1.000000
v -0.529328 -0.391273 -0.767525 
vn 0.000000 1.000000 0.000000
vt 0.000000 1.000000
v -0.529328 -0.391273 -0.767525 
vn -0.957827 0.000000 -0.287347
vt 0.000000 1.000000
v -0.701001 -0.391273 -0.195279 
vn 0.000000 1.000000 0.000000
vt 0.000000 1.000000
v -0.701001 -0.391273 -0.195279 
vn -0.285120 0.000000 0.958492
vt 0.000000 1.000000
v -0.135908 -0.391273 -0.027182 
vn 0.000000 1.000000 0.000000
vt 0.000000 1.000000
v -0.135908 -0.391273 -0.027182 
vn 0.953401 0.000000 0.301707
vt 0.000000 1.000000
v 0.042918 -0.391273 -0.592275 
vn 0.000000 1.000000 0.000000
vt 0.000000 1.000000
v 0.042918 -0.391273 -0.592275 
vn 0.953401 0.000000 0.301707
vt 0.000000 1.000000
v 0.042918 -0.981402 -0.592275 
vn -0.285120 0.000000 0.958492
vt 0.000000 1.000000
v -0.135908 -0.981402 -0.027182 
vn 0.292825 0.000000 -0.956166
vt 0.000000 1.000000
v -0.529328 -0.981402 -0.767525 
vn -0.957827 0.000000 -0.287347
vt 0.000000 1.000000
v -0.701001 -0.981402 -0.195279 
vn 0.955649 0.000000 -0.294508
vt 0.000000 1.000000
v 0.518598 0.198855 -0.116595 
vn 0.000000 1.000000 0.000000
vt 0.000000 1.000000
v 0.518598 0.198855 -0.116595 
vn -0.296209 0.000000 -0.955123
vt 0.000000 1.000000
v -0.046495 0.198855 0.058655 
vn 0.000000 1.000000 0.000000
vt 0.000000 1.000000
v -0.046495 0.198855 0.058655 
vn -0.956166 0.000000 0.292825
vt 0.000000 1.000000
v 0.128755 0.198855 0.630901 
vn 0.000000 1.000000 0.000000
vt 0.000000 1.000000
v 0.128755 0.198855 0.630901 
vn 0.301709 0.000000 0.953400
vt 0.000000 1.000000
v 0.693848 0.198855 0.452074 
vn 0.000000 1.000000 0.000000
vt 0.000000 1.000000
v 0.693848 0.198855 0.452074 
vn 0.301709 0.000000 0.953400
vt 0.000000 1.000000
v 0.693848 -0.981402 0.452074 
vn -0.956166 0.000000 0.292825
vt 0.000000 1.000000
v 0.128755 -0.981402 0.630901 
vn 0.955649 0.000000 -0.294508
vt 0.000000 1.000000
v 0.518598 -0.981402 -0.116595 
vn -0.296209 0.000000 -0.955123
vt 0.000000 1.000000
v -0.046495 -0.981402 0.058655 
# 60 vertices, 0 vertices normals


usemtl material_0
f 1/1/1 26/26/26 28/28/28
f 1/1/1 28/28/28 30/30/30
f 31/31/31 33/33/33 35/35/35
f 31/31/31 35/35/35 8/8/8
f 29/29/29 3/3/3 34/34/34
f 29/29/29 34/34/34 6/6/6
f 38/38/38 40/40/40 42/42/42
f 38/38/38 42/42/42 44/44/44
f 45/45/45 43/43/43 11/11/11
f 45/45/45 11/11/11 14/14/14
f 47/47/47 37/37/37 12/12/12
f 47/47/47 12/12/12 13/13/13
f 48/48/48 39/39/39 9/9/9
f 48/48/48 9/9/9 15/15/15
f 46/46/46 41/41/41 10/10/10
f 46/46/46 10/10/10 16/16/16
f 50/50/50 52/52/52 54/54/54
f 50/50/50 54/54/54 56/56/56
f 57/57/57 55/55/55 19/19/19
f 57/57/57 19/19/19 22/22/22
f 59/59/59 49/49/49 20/20/20
f 59/59/59 20/20/20 21/21/21
f 60/60/60 51/51/51 17/17/17
f 60/60/60 17/17/17 23/23/23
f 58/58/58 53/53/53 18/18/18
f 58/58/58 18/18/18 24/24/24

usemtl material_1
f 27/27/27 2/2/2 36/36/36
f 27/27/27 36/36/36 7/7/7

usemtl material_2
f 25/25/25 4/4/4 32/32/32
f 25/25/25 32/32/32 5/5/5
# 30 faces, 0 coords texture

# End of File